WARNING: /home/nawres/yocto/first-project/bitbake/lib/bb/server/process.py:657: DeprecationWarning: setDaemon() is deprecated, set the daemon attribute instead
  self.t.setDaemon(True)

ERROR: ExpansionError during parsing /home/nawres/yocto/first-project/meta-raspberrypi/recipes-kernel/linux/linux-raspberrypi_5.4.bb
Traceback (most recent call last):
bb.data_smart.ExpansionError: Failure expanding variable KERNEL_VERSION, expression was ${@get_kernelversion_headers('/home/nawres/yocto/first-project/test//BUILD-ros2-galactic-gatesgarth/work/qemux86_64-oe-linux/linux-raspberrypi/1_5.4.83+git${SRCPV}-r0/linux-qemux86_64-standard-build')} which triggered exception SyntaxError: unterminated string literal (detected at line 1) (Var <KERNEL_VERSION>, line 1)

